^D:\GC2A17\C++課題\CPP_KADAI\課題4\DEBUG\MAIN.OBJ|D:\GC2A17\C++課題\CPP_KADAI\課題4\DEBUG\SAMPLE.OBJ
D:\GC2A17\C++課題\CPP_KADAI\DEBUG\課題4.ILK
D:\GC2A17\C++課題\CPP_KADAI\DEBUG\課題4.EXE
D:\GC2A17\C++課題\CPP_KADAI\DEBUG\課題4.PDB
