^D:\GC2A17\C++\CPP_KADAI\課題8\MAIN.CPP|D:\GC2A17\C++\CPP_KADAI\課題8\STATUS.CPP
D:\GC2A17\C++\CPP_KADAI\課題8\X64\DEBUG\VC142.PDB
D:\GC2A17\C++\CPP_KADAI\課題8\X64\DEBUG\VC142.IDB
D:\GC2A17\C++\CPP_KADAI\課題8\X64\DEBUG\STATUS.OBJ
D:\GC2A17\C++\CPP_KADAI\課題8\X64\DEBUG\MAIN.OBJ
^D:\GC2A17\C++\CPP_KADAI\課題8\MAIN.CPP
D:\GC2A17\C++\CPP_KADAI\課題8\X64\DEBUG\VC142.PDB
^D:\GC2A17\C++\CPP_KADAI\課題8\STATUS.CPP
D:\GC2A17\C++\CPP_KADAI\課題8\X64\DEBUG\VC142.PDB
