^D:\GC2A17\C++\CPP_KADAI\課題1\X64\DEBUG\MAIN.OBJ|D:\GC2A17\C++\CPP_KADAI\課題1\X64\DEBUG\SAMPLE.OBJ
D:\GC2A17\C++\CPP_KADAI\X64\DEBUG\課題1.ILK
D:\GC2A17\C++\CPP_KADAI\X64\DEBUG\課題1.EXE
D:\GC2A17\C++\CPP_KADAI\X64\DEBUG\課題1.PDB
